{
    "version_new": "1.0.2",
    "version_last": "1.0.1",
    "update_required": false,
    "update_url": "https://github.com/hostinfodev/httpscan",
    "changelog": [
        "Total update",
        "Added new features",
        "Fixed bugs"
    ]
}